dd1_Final_Project/dd1_Final_Project.sim/sim_1/behav/xsim/simulate.log
Time resolution is 1 ps
Time	Binary		BCD
----	------		---
  10ns	    0		0
  20ns	 1234		4660
  30ns	 2468		9320
  40ns	 3702		14082
  50ns	 4936		18742
  60ns	 6170		24944
  70ns	 7404		29700
  80ns	 8638		34360
  90ns	 9872		39026
 100ns	11106		69894
 110ns	12340		74560
 120ns	65535		415029
$finish called at time : 120 ns : File "C:/Users/Kirollosfady/Downloads/8-8_SPM/dd1_Final_Project/dd1_Final_Project.srcs/sim_1/new/bin_to_bcd_tb.v" Line 54
